module gitlab.com/alexchadwick/lgwt/pointers

go 1.16

require (
	github.com/kisielk/errcheck v1.6.0 // indirect
	golang.org/x/sys v0.0.0-20210630005230-0f9fa26af87c // indirect
	golang.org/x/tools v0.1.5 // indirect
)
